%YAML 1.1
%TAG !u! tag:unity3d.com,2011:
--- !u!114 &11400000
MonoBehaviour:
  m_ObjectHideFlags: 0
  m_CorrespondingSourceObject: {fileID: 0}
  m_PrefabInstance: {fileID: 0}
  m_PrefabAsset: {fileID: 0}
  m_GameObject: {fileID: 0}
  m_Enabled: 1
  m_EditorHideFlags: 0
  m_Script: {fileID: 11500000, guid: a211a1c87d5494d4ca1ccd1b45d3cd9e, type: 3}
  m_Name: PistolData
  m_EditorClassIdentifier: 
  clipSize: 8
  damage: 40
  intialTotalAmmo: 320
